最近便利だと感じているコード集 - Rikiya's blog
…
ggExtra::ggMarginal

これは、散布図と分布図を同時にプロットできる関数です。

ggplotと共にに使います。

データは、Rによる実証分析　回帰分析から因果分析へを基に作成しています。

path <- "~/R/learn_R/Rによる実証分析　回帰分析から因果分析へ/Data/02 演習用データ集/"
(df <- read_csv(paste0(path, "data_4_1.csv")) %>% 
    mutate(
      date = lubridate::ymd(date)
    ))

## # A tibble: 744 x 5
##    date        time  elec  prec  temp
##    <date>     <dbl> <dbl> <dbl> <dbl>
##  1 2014-08-01     0  3193     0  27.9
##  2 2014-08-01     1  2960     0  27.9
##  3 2014-08-01     2  2807     0  27.1
##  4 2014-08-01     3  2748     0  26.8
##  5 2014-08-01     4  2735     0  26.9
##  6 2014-08-01     5  2736     0  27.3
##  7 2014-08-01     6  2950     0  28.3
##  8 2014-08-01     7  3336     0  29.4
##  9 2014-08-01     8  3863     0  30.2
## 10 2014-08-01     9  4328     0  32.2
## # ... with 734 more rows

df <- df %>% 
  mutate(
    daytime = (time >= 9 & time <= 18),
    wday = wday(date, label = TRUE, local = "English"),
    sunday = (wday == "Sun"), # sundayダミーを追加
    recess = (date %in% seq(ymd("2014-08-11"), ymd("2014-08-16"), by = "day"))
  )
df

## # A tibble: 744 x 9
##    date        time  elec  prec  temp daytime wday  sunday recess
##    <date>     <dbl> <dbl> <dbl> <dbl> <lgl>   <ord> <lgl>  <lgl> 
##  1 2014-08-01     0  3193     0  27.9 FALSE   Fri   FALSE  FALSE 
##  2 2014-08-01     1  2960     0  27.9 FALSE   Fri   FALSE  FALSE 
##  3 2014-08-01     2  2807     0  27.1 FALSE   Fri   FALSE  FALSE 
##  4 2014-08-01     3  2748     0  26.8 FALSE   Fri   FALSE  FALSE 
##  5 2014-08-01     4  2735     0  26.9 FALSE   Fri   FALSE  FALSE 
##  6 2014-08-01     5  2736     0  27.3 FALSE   Fri   FALSE  FALSE 
##  7 2014-08-01     6  2950     0  28.3 FALSE   Fri   FALSE  FALSE 
##  8 2014-08-01     7  3336     0  29.4 FALSE   Fri   FALSE  FALSE 
##  9 2014-08-01     8  3863     0  30.2 FALSE   Fri   FALSE  FALSE 
## 10 2014-08-01     9  4328     0  32.2 TRUE    Fri   FALSE  FALSE 
## # ... with 734 more rows
…
